{
  "config": {
    "configFile": "D:\\Automation\\JS and Node.js\\API_Automation\\playwright.config.js",
    "rootDir": "D:/Automation/JS and Node.js/API_Automation",
    "forbidOnly": false,
    "fullyParallel": true,
    "globalSetup": null,
    "globalTeardown": null,
    "globalTimeout": 0,
    "grep": {},
    "grepInvert": null,
    "maxFailures": 0,
    "metadata": {
      "actualWorkers": 4
    },
    "preserveOutput": "always",
    "reporter": [
      [
        "list",
        null
      ],
      [
        "json",
        {
          "outputFile": "report/json/report.json"
        }
      ],
      [
        "html",
        {
          "outputFolder": "report/html",
          "open": "never"
        }
      ]
    ],
    "reportSlowTests": {
      "max": 5,
      "threshold": 15000
    },
    "quiet": false,
    "projects": [
      {
        "outputDir": "D:/Automation/JS and Node.js/API_Automation/test-results",
        "repeatEach": 1,
        "retries": 0,
        "metadata": {},
        "id": "",
        "name": "",
        "testDir": "D:/Automation/JS and Node.js/API_Automation",
        "testIgnore": [],
        "testMatch": [
          "**/*.@(spec|test).?(c|m)[jt]s?(x)"
        ],
        "timeout": 30000
      }
    ],
    "shard": null,
    "updateSnapshots": "missing",
    "version": "1.49.1",
    "workers": 6,
    "webServer": null
  },
  "suites": [
    {
      "title": "reqres_api.spec.js",
      "file": "reqres_api.spec.js",
      "column": 0,
      "line": 0,
      "specs": [],
      "suites": [
        {
          "title": "API Test",
          "file": "reqres_api.spec.js",
          "line": 19,
          "column": 6,
          "specs": [
            {
              "title": "Get",
              "ok": true,
              "tags": [],
              "tests": [
                {
                  "timeout": 30000,
                  "annotations": [],
                  "expectedStatus": "passed",
                  "projectId": "",
                  "projectName": "",
                  "results": [
                    {
                      "workerIndex": 0,
                      "status": "passed",
                      "duration": 186,
                      "errors": [],
                      "stdout": [
                        {
                          "text": "Response Data Get: {\n  \"page\": 2,\n  \"per_page\": 6,\n  \"total\": 12,\n  \"total_pages\": 2,\n  \"data\": [\n    {\n      \"id\": 7,\n      \"email\": \"michael.lawson@reqres.in\",\n      \"first_name\": \"Michael\",\n      \"last_name\": \"Lawson\",\n      \"avatar\": \"https://reqres.in/img/faces/7-image.jpg\"\n    },\n    {\n      \"id\": 8,\n      \"email\": \"lindsay.ferguson@reqres.in\",\n      \"first_name\": \"Lindsay\",\n      \"last_name\": \"Ferguson\",\n      \"avatar\": \"https://reqres.in/img/faces/8-image.jpg\"\n    },\n    {\n      \"id\": 9,\n      \"email\": \"tobias.funke@reqres.in\",\n      \"first_name\": \"Tobias\",\n      \"last_name\": \"Funke\",\n      \"avatar\": \"https://reqres.in/img/faces/9-image.jpg\"\n    },\n    {\n      \"id\": 10,\n      \"email\": \"byron.fields@reqres.in\",\n      \"first_name\": \"Byron\",\n      \"last_name\": \"Fields\",\n      \"avatar\": \"https://reqres.in/img/faces/10-image.jpg\"\n    },\n    {\n      \"id\": 11,\n      \"email\": \"george.edwards@reqres.in\",\n      \"first_name\": \"George\",\n      \"last_name\": \"Edwards\",\n      \"avatar\": \"https://reqres.in/img/faces/11-image.jpg\"\n    },\n    {\n      \"id\": 12,\n      \"email\": \"rachel.howell@reqres.in\",\n      \"first_name\": \"Rachel\",\n      \"last_name\": \"Howell\",\n      \"avatar\": \"https://reqres.in/img/faces/12-image.jpg\"\n    }\n  ],\n  \"support\": {\n    \"url\": \"https://contentcaddy.io?utm_source=reqres&utm_medium=json&utm_campaign=referral\",\n    \"text\": \"Tired of writing endless social media content? Let Content Caddy generate it for you.\"\n  }\n}\n"
                        }
                      ],
                      "stderr": [],
                      "retry": 0,
                      "startTime": "2024-12-16T16:53:44.268Z",
                      "attachments": []
                    }
                  ],
                  "status": "expected"
                }
              ],
              "id": "7b2769d3b5caaedb634d-3da473c0908cc38546c0",
              "file": "reqres_api.spec.js",
              "line": 20,
              "column": 5
            },
            {
              "title": "Post",
              "ok": true,
              "tags": [],
              "tests": [
                {
                  "timeout": 30000,
                  "annotations": [],
                  "expectedStatus": "passed",
                  "projectId": "",
                  "projectName": "",
                  "results": [
                    {
                      "workerIndex": 1,
                      "status": "passed",
                      "duration": 537,
                      "errors": [],
                      "stdout": [
                        {
                          "text": "Response Data Post: {\n  \"name\": \"Rizky\",\n  \"job\": \"QA\",\n  \"id\": \"33\",\n  \"createdAt\": \"2024-12-16T16:53:44.711Z\"\n}\n"
                        }
                      ],
                      "stderr": [],
                      "retry": 0,
                      "startTime": "2024-12-16T16:53:44.275Z",
                      "attachments": []
                    }
                  ],
                  "status": "expected"
                }
              ],
              "id": "7b2769d3b5caaedb634d-e605f52bdf3e337c1157",
              "file": "reqres_api.spec.js",
              "line": 39,
              "column": 5
            },
            {
              "title": "Delete",
              "ok": true,
              "tags": [],
              "tests": [
                {
                  "timeout": 30000,
                  "annotations": [],
                  "expectedStatus": "passed",
                  "projectId": "",
                  "projectName": "",
                  "results": [
                    {
                      "workerIndex": 2,
                      "status": "passed",
                      "duration": 538,
                      "errors": [],
                      "stdout": [
                        {
                          "text": "No content returned for DELETE request.\n"
                        }
                      ],
                      "stderr": [],
                      "retry": 0,
                      "startTime": "2024-12-16T16:53:44.289Z",
                      "attachments": []
                    }
                  ],
                  "status": "expected"
                }
              ],
              "id": "7b2769d3b5caaedb634d-c91e0795bd1501536324",
              "file": "reqres_api.spec.js",
              "line": 69,
              "column": 5
            },
            {
              "title": "Put",
              "ok": true,
              "tags": [],
              "tests": [
                {
                  "timeout": 30000,
                  "annotations": [],
                  "expectedStatus": "passed",
                  "projectId": "",
                  "projectName": "",
                  "results": [
                    {
                      "workerIndex": 3,
                      "status": "passed",
                      "duration": 560,
                      "errors": [],
                      "stdout": [
                        {
                          "text": "Response Data Put: {\n  \"name\": \"Rizky\",\n  \"job\": \"Senior QA\",\n  \"updatedAt\": \"2024-12-16T16:53:44.708Z\"\n}\n"
                        }
                      ],
                      "stderr": [],
                      "retry": 0,
                      "startTime": "2024-12-16T16:53:44.269Z",
                      "attachments": []
                    }
                  ],
                  "status": "expected"
                }
              ],
              "id": "7b2769d3b5caaedb634d-db88e3d2c403afa9a7e9",
              "file": "reqres_api.spec.js",
              "line": 89,
              "column": 5
            }
          ]
        }
      ]
    }
  ],
  "errors": [],
  "stats": {
    "startTime": "2024-12-16T16:53:43.004Z",
    "duration": 1862.3999999999999,
    "expected": 4,
    "skipped": 0,
    "unexpected": 0,
    "flaky": 0
  }
}